 1174404ms [BTC] 76 16 00 12 15 0E 28 05 DC 11 94 78 01 32 08 23 05 00 01 2C 0D AC 57 30        
     +22ms [HTR] 76 16 00 00 00 85 00 00 00 85 00 2F 00 00 00 00 00 08 00 1A 64 00 9A 4E
 1175426ms [BTC] 76 16 00 12 15 0E 28 05 DC 11 94 78 01 32 08 23 05 00 01 2C 0D AC 57 30       
     +22ms [HTR] 76 16 00 00 00 84 00 00 00 84 00 2F 00 00 00 00 00 08 00 1A 64 00 8B 1D
 1176448ms [BTC] 76 16 00 12 15 0E 28 05 DC 11 94 78 01 32 08 23 05 00 01 2C 0D AC 57 30       
     +23ms [HTR] 76 16 00 00 00 84 00 00 00 84 00 2F 00 00 00 00 00 08 00 1A 64 00 8B 1D
 1177471ms [BTC] 76 16 00 12 15 0E 28 05 DC 11 94 78 01 32 08 23 05 00 01 2C 0D AC 57 30
     +22ms [HTR] 76 16 00 00 00 85 00 00 00 85 00 2F 00 00 00 00 00 08 00 1A 64 00 9A 4E
 1178493ms [BTC] 76 16 00 12 15 0E 28 05 DC 11 94 78 01 32 08 23 05 00 01 2C 0D AC 57 30    
     +21ms [HTR] 76 16 00 00 00 85 00 00 00 85 00 2F 00 00 00 00 00 08 00 1A 64 00 9A 4E
 1179515ms [BTC] 76 16 00 12 15 0E 28 05 DC 11 94 78 01 32 08 23 05 00 01 2C 0D AC 57 30    
     +22ms [HTR] 76 16 00 00 00 84 00 00 00 84 00 2F 00 00 00 00 00 08 00 1A 64 00 8B 1D
 1180537ms [BTC] 76 16 00 12 15 0E 28 05 DC 11 94 78 01 32 08 23 05 00 01 2C 0D AC 57 30     
     +22ms [HTR] 76 16 00 00 00 85 00 00 00 85 00 2F 00 00 00 00 00 08 00 1A 64 00 9A 4E
 1181559ms [BTC] 76 16 00 12 15 0E 28 05 DC 11 94 78 01 32 08 23 05 00 01 2C 0D AC 57 30        
     +23ms [HTR] 76 16 00 00 00 84 00 00 00 84 00 2F 00 00 00 00 00 08 00 1A 64 00 8B 1D
 1182583ms [BTC] 76 16 00 12 15 0E 28 05 DC 11 94 78 01 32 08 23 05 00 01 2C 0D AC 57 30   Timeout collecting BTC heater response data, returning to Idle State
 1183588ms [BTC] 76 16 00 12 15 0E 28 05 DC 11 94 78 01 32 08 23 05 00 01 2C 0D AC 57 30        
     +22ms [HTR] 76 16 00 00 00 84 00 00 00 84 00 2F 00 00 00 00 00 08 00 1A 64 00 8B 1D
 1184611ms [BTC] 76 16 00 12 15 0E 28 05 DC 11 94 78 01 32 08 23 05 00 01 2C 0D AC 57 30        
     +21ms [HTR] 76 16 00 00 00 85 00 00 00 85 00 2F 00 00 00 00 00 08 00 1A 64 00 9A 4E
 1185632ms [BTC] 76 16 00 12 15 0E 28 05 DC 11 94 78 01 32 08 23 05 00 01 2C 0D AC 57 30    
     +22ms [HTR] 76 16 00 00 00 84 00 00 00 84 00 2F 00 00 00 00 00 08 00 1A 64 00 8B 1D
 1186654ms [BTC] 76 16 00 12 15 0E 28 05 DC 11 94 78 01 32 08 23 05 00 01 2C 0D AC 57 30   Timeout collecting BTC heater response data, returning to Idle State
 1187676ms [BTC] 76 16 00 12 15 0E 28 05 DC 11 94 78 01 32 08 23 05 00 01 2C 0D AC 57 30    
     +22ms [HTR] 1D 76 16 00 00 00 84 00 00 00 84 00 2F 00 00 00 00 00 08 00 1A 64 00 8B   verifyCRC FAILED: calc:58A8 data:8B
Bluetooth data not sent, CRC error
 1188699ms [BTC] 76 16 00 12 15 0E 28 05 DC 11 94 78 01 32 08 23 05 00 01 2C 0D AC 57 30    
     +22ms [HTR] 1D 76 16 00 00 00 85 00 00 00 85 00 2F 00 00 00 00 00 08 00 1A 64 00 9A   verifyCRC FAILED: calc:B94 data:9A
Bluetooth data not sent, CRC error
 1189721ms [BTC] 76 16 00 12 15 0E 28 05 DC 11 94 78 01 32 08 23 05 00 01 2C 0D AC 57 30   
     +22ms [HTR] 4E 76 16 00 00 00 85 00 00 00 85 00 2F 00 00 00 00 00 08 00 1A 64 00 9A   verifyCRC FAILED: calc:27B2 data:9A
Bluetooth data not sent, CRC error
 1190743ms [BTC] 76 16 00 12 15 0E 28 05 DC 11 94 78 01 32 08 23 05 00 01 2C 0D AC 57 30    
     +22ms [HTR] 4E 76 16 00 00 00 84 00 00 00 84 00 2F 00 00 00 00 00 08 00 1A 64 00 8B   verifyCRC FAILED: calc:748E data:8B
Bluetooth data not sent, CRC error
 1191765ms [BTC] 76 16 00 12 15 0E 28 05 DC 11 94 78 01 32 08 23 05 00 01 2C 0D AC 57 30    
     +22ms [HTR] 1D 76 16 00 00 00 84 00 00 00 84 00 2F 00 00 00 00 00 08 00 1A 64 00 8B   verifyCRC FAILED: calc:58A8 data:8B
Bluetooth data not sent, CRC error
 1192788ms [BTC] 76 16 00 12 15 0E 28 05 DC 11 94 78 01 32 08 23 05 00 01 2C 0D AC 57 30    
     +21ms [HTR] 1D 76 16 00 00 00 85 00 00 00 85 00 2F 00 00 00 00 00 08 00 1A 64 00 9A   verifyCRC FAILED: calc:B94 data:9A
Bluetooth data not sent, CRC error
 1193810ms [BTC] 76 16 00 12 15 0E 28 05 DC 11 94 78 01 32 08 23 05 00 01 2C 0D AC 57 30    
     +23ms [HTR] 4E 76 16 00 00 00 84 00 00 00 84 00 2F 00 00 00 00 00 08 00 1A 64 00 8B   verifyCRC FAILED: calc:748E data:8B
Bluetooth data not sent, CRC error
 1194833ms [BTC] 76 16 00 12 15 0E 28 05 DC 11 94 78 01 32 08 23 05 00 01 2C 0D AC 57 30   Timeout collecting BTC heater response data, returning to Idle State
